nmcu_tb.vcd
$version Generated by VerilatedVcd $end
$timescale 1ps $end
 $scope module TOP $end
  $scope module nmcu_pkg $end
   $var wire 32 Y DATA_WIDTH [31:0] $end
   $var wire 32 Y ADDR_WIDTH [31:0] $end
   $var wire 32 Z LEN_WIDTH [31:0] $end
   $var wire 32 ] PE_ROWS [31:0] $end
   $var wire 32 ] PE_COLS [31:0] $end
   $var wire 32 Y MAC_DATA_WIDTH [31:0] $end
   $var wire 32 ^ CACHE_LINE_SIZE [31:0] $end
   $var wire 32 _ CACHE_NUM_SETS [31:0] $end
   $var wire 32 [ MEM_SIZE_WORDS [31:0] $end
   $var wire 32 \ MEM_LATENCY [31:0] $end
   $var wire 32 ] DATA_BYTES_PER_WORD [31:0] $end
   $var wire 32 ` CACHE_LINE_WORDS [31:0] $end
  $upscope $end
  $scope module nmcu_tb $end
   $var wire 1 S clk $end
   $var wire 1 # rst_n $end
   $var wire 1 $ cpu_instr_valid $end
   $var wire 140 % cpu_instruction [139:0] $end
   $var wire 1 - cpu_instr_ready $end
   $var wire 1 . nmcu_resp_valid $end
   $var wire 1 * nmcu_resp_ready $end
   $var wire 35 / nmcu_response [34:0] $end
   $var wire 32 + received_data [31:0] $end
   $var wire 2 , received_status [1:0] $end
   $scope module dut $end
    $var wire 1 S clk $end
    $var wire 1 # rst_n $end
    $var wire 1 $ cpu_instr_valid $end
    $var wire 140 % cpu_instruction [139:0] $end
    $var wire 1 - cpu_instr_ready $end
    $var wire 1 . nmcu_resp_valid_o $end
    $var wire 1 * nmcu_resp_ready_i $end
    $var wire 35 / nmcu_response_o [34:0] $end
    $var wire 74 T cu_cache_req [73:0] $end
    $var wire 66 1 cu_cache_resp [65:0] $end
    $var wire 74 T cache_mem_req [73:0] $end
    $var wire 66 1 cache_mem_resp [65:0] $end
    $var wire 1 4 pe_cmd_valid $end
    $var wire 140 5 pe_cmd [139:0] $end
    $var wire 32 : pe_operand_a [31:0] $end
    $var wire 32 ; pe_operand_b [31:0] $end
    $var wire 1 X pe_cmd_ready $end
    $var wire 1 < pe_done $end
    $var wire 32 = pe_result [31:0] $end
    $scope module cache_inst $end
     $var wire 1 S clk $end
     $var wire 1 # rst_n $end
     $var wire 74 T req_i [73:0] $end
     $var wire 66 1 resp_o [65:0] $end
     $var wire 74 T mem_req_o [73:0] $end
     $var wire 66 1 mem_resp_i [65:0] $end
    $upscope $end
    $scope module cu_inst $end
     $var wire 32 Y DATA_WIDTH [31:0] $end
     $var wire 32 Y ADDR_WIDTH [31:0] $end
     $var wire 32 Z LEN_WIDTH [31:0] $end
     $var wire 1 S clk $end
     $var wire 1 # rst_n $end
     $var wire 1 $ cpu_instr_valid $end
     $var wire 140 % cpu_instruction [139:0] $end
     $var wire 1 - cpu_instr_ready $end
     $var wire 74 T cache_req_o [73:0] $end
     $var wire 66 1 cache_resp_i [65:0] $end
     $var wire 1 4 pe_cmd_valid_o $end
     $var wire 140 5 pe_cmd_o [139:0] $end
     $var wire 32 : pe_operand_a_o [31:0] $end
     $var wire 32 ; pe_operand_b_o [31:0] $end
     $var wire 1 X pe_cmd_ready_i $end
     $var wire 1 < pe_done_i $end
     $var wire 32 = pe_result_i [31:0] $end
     $var wire 1 . nmcu_resp_valid_o $end
     $var wire 1 * nmcu_resp_ready_i $end
     $var wire 35 / nmcu_response_o [34:0] $end
     $var wire 4 > current_state [3:0] $end
     $var wire 4 W next_state [3:0] $end
     $var wire 140 ? current_instruction_reg [139:0] $end
     $var wire 1 D instruction_valid_reg $end
     $var wire 1 E req_valid_reg $end
     $var wire 32 F operand_a_reg [31:0] $end
     $var wire 32 G operand_b_reg [31:0] $end
     $var wire 32 H result_reg [31:0] $end
    $upscope $end
    $scope module mem_if_inst $end
     $var wire 32 Y DATA_WIDTH [31:0] $end
     $var wire 32 Y ADDR_WIDTH [31:0] $end
     $var wire 32 [ MEM_SIZE_WORDS [31:0] $end
     $var wire 32 \ LATENCY [31:0] $end
     $var wire 1 S clk $end
     $var wire 1 # rst_n $end
     $var wire 74 T req_i [73:0] $end
     $var wire 66 1 resp_o [65:0] $end
     $var wire 5 I rvalid_pipe [4:0] $end
     $var wire 32 J rdata_pipe[0] [31:0] $end
     $var wire 32 K rdata_pipe[1] [31:0] $end
     $var wire 32 L rdata_pipe[2] [31:0] $end
     $var wire 32 M rdata_pipe[3] [31:0] $end
     $var wire 32 N rdata_pipe[4] [31:0] $end
     $scope module unnamedblk1 $end
      $var wire 32 O i [31:0] $end
     $upscope $end
    $upscope $end
    $scope module pe_if_inst $end
     $var wire 32 Y DATA_WIDTH [31:0] $end
     $var wire 32 Y ADDR_WIDTH [31:0] $end
     $var wire 32 Z LEN_WIDTH [31:0] $end
     $var wire 1 S clk $end
     $var wire 1 # rst_n $end
     $var wire 1 4 pe_cmd_valid_i $end
     $var wire 140 5 pe_cmd_i [139:0] $end
     $var wire 32 : pe_operand_a_i [31:0] $end
     $var wire 32 ; pe_operand_b_i [31:0] $end
     $var wire 1 X pe_cmd_ready_o $end
     $var wire 1 < pe_done_o $end
     $var wire 32 = pe_result_o [31:0] $end
     $var wire 32 P pe_result [31:0] $end
     $scope module pe_array_inst $end
      $var wire 32 Y DATA_WIDTH [31:0] $end
      $var wire 32 : operand_a_i [31:0] $end
      $var wire 32 ; operand_b_i [31:0] $end
      $var wire 32 P result_o [31:0] $end
      $var wire 64 Q mult_result [63:0] $end
     $upscope $end
    $upscope $end
   $upscope $end
  $upscope $end
 $upscope $end
$enddefinitions $end


#1
0#
0$
b00000000000000000000000000000000000000000000000000000000000000000000000000000000000000000000000000000000000000000000000000000000000000000000 %
1*
b00000000000000000000000000000000 +
b00 ,
1-
0.
b00000000000000000000000000000000000 /
b000000000000000000000000000000000000000000000000000000000000000000 1
04
b00000000000000000000000000000000000000000000000000000000000000000000000000000000000000000000000000000000000000000000000000000000000000000000 5
b00000000000000000000000000000000 :
b00000000000000000000000000000000 ;
0<
b00000000000000000000000000000000 =
b0000 >
b00000000000000000000000000000000000000000000000000000000000000000000000000000000000000000000000000000000000000000000000000000000000000000000 ?
0D
0E
b00000000000000000000000000000000 F
b00000000000000000000000000000000 G
b00000000000000000000000000000000 H
b00000 I
b00000000000000000000000000000000 J
b00000000000000000000000000000000 K
b00000000000000000000000000000000 L
b00000000000000000000000000000000 M
b00000000000000000000000000000000 N
b00000000000000000000000000000000 O
b00000000000000000000000000000000 P
b0000000000000000000000000000000000000000000000000000000000000000 Q
0S
b00000000000000000000000000000000000000000000000000000000000000000000000000 T
b0000 W
1X
b00000000000000000000000000100000 Y
b00000000000000000000000000001000 Z
b00000000000000000100000000000000 [
b00000000000000000000000000000101 \
b00000000000000000000000000000100 ]
b00000000000000000000000001000000 ^
b00000000000000000000000100000000 _
b00000000000000000000000000010000 `
#5001
1S
#10001
1#
0S
#15001
b00000000000000000000000000000101 O
1S
#20001
0S
#25001
1$
b00100000000000000000000000000110010000000000000000000000000000000000000000000000000000000000000000000000000000000000000000000011011100000001 %
b00100000000000000000000000000110010000000000000000000000000000000000000000000000000000000000000000000000000000000000000000000011011100000001 ?
1D
1S
b0001 W
#30001
0S
#35001
0$
0-
b0001 >
0D
1S
b11000000000000000000000000011001000000000000000000000000000011011100000001 T
#40001
0S
#45001
b100000000000000000000000000000000000000000000000000000000000000000 1
1E
1S
b01000000000000000000000000011001000000000000000000000000000011011100000001 T
b0110 W
#50001
0S
#55001
1.
b10000000000000000000000000000000000 /
b000000000000000000000000000000000000000000000000000000000000000000 1
b0110 >
0E
b00000000000000000000000000110111 J
1S
b00000000000000000000000000000000000000000000000000000000000000000000000000 T
b0000 W
#60001
0S
#65001
1-
0.
b00000000000000000000000000000000000 /
b0000 >
b00000000000000000000000000000000 J
b00000000000000000000000000110111 K
1S
#70001
0S
#75001
1$
b00100000000000000000000000000110010100000000000000000000000000000000000000000000000000000000000000000000000000000000000000000000001000000001 %
b00100000000000000000000000000110010100000000000000000000000000000000000000000000000000000000000000000000000000000000000000000000001000000001 ?
1D
b00000000000000000000000000000000 K
b00000000000000000000000000110111 L
1S
b0001 W
#80001
0S
#85001
0$
0-
b0001 >
0D
b00000000000000000000000000000000 L
b00000000000000000000000000110111 M
1S
b11000000000000000000000000011001010000000000000000000000000000001000000001 T
#90001
0S
#95001
b100000000000000000000000000000000000000000000000000000000000000000 1
1E
b00000000000000000000000000000000 M
b00000000000000000000000000110111 N
1S
b01000000000000000000000000011001010000000000000000000000000000001000000001 T
b0110 W
#100001
0S
#105001
1.
b10000000000000000000000000000000000 /
b000000000000000000000000000000000000000000000000000000000000000000 1
b0110 >
0E
b00000000000000000000000000000010 J
b00000000000000000000000000000000 N
1S
b00000000000000000000000000000000000000000000000000000000000000000000000000 T
b0000 W
#110001
0S
#115001
1-
0.
b00000000000000000000000000000000000 /
b0000 >
b00000000000000000000000000000000 J
b00000000000000000000000000000010 K
1S
#120001
0S
#125001
1$
b00010000000000000000000000000110010000000000000000000000000000000000000000000000000000000000000000000000000000000000000000000000000000000001 %
b00010000000000000000000000000110010000000000000000000000000000000000000000000000000000000000000000000000000000000000000000000000000000000001 ?
1D
b00000000000000000000000000000000 K
b00000000000000000000000000000010 L
1S
b0001 W
#130001
0S
#135001
0$
0-
b0001 >
0D
b00000000000000000000000000000000 L
b00000000000000000000000000000010 M
1S
b10000000000000000000000000011001000000000000000000000000000000000000000001 T
#140001
0S
#145001
1E
b00001 I
b00000000000000000000000000110111 J
b00000000000000000000000000000000 M
b00000000000000000000000000000010 N
1S
b00000000000000000000000000011001000000000000000000000000000000000000000001 T
#150001
0S
#155001
b000000000000000000000000000000000000000000000000000000000000000100 1
b00010 I
b00000000000000000000000000110111 K
b00000000000000000000000000000000 N
1S
#160001
0S
#165001
b000000000000000000000000000000000000000000000000000000000000000000 1
b00100 I
b00000000000000000000000000110111 L
1S
#170001
0S
#175001
b01000 I
b00000000000000000000000000110111 M
1S
#180001
0S
#185001
b10000 I
b00000000000000000000000000110111 N
1S
#190001
0S
#195001
b100000000000000000000000000000000000000000000000000000000001101110 1
b00000 I
1S
b0110 W
#200001
0S
#205001
1.
b10000000000000000000000000011011100 /
b000000000000000000000000000000000000000000000000000000000001101110 1
b0110 >
0E
1S
b00000000000000000000000000000000000000000000000000000000000000000000000000 T
b0000 W
#210001
0S
#215001
b00000000000000000000000000110111 +
1-
0.
b00000000000000000000000000000000000 /
b0000 >
b00000000000000000000000000000000 J
1S
#220001
0S
#225001
1$
b00010000000000000000000000000110010100000000000000000000000000000000000000000000000000000000000000000000000000000000000000000000000000000001 %
b00010000000000000000000000000110010100000000000000000000000000000000000000000000000000000000000000000000000000000000000000000000000000000001 ?
1D
b00000000000000000000000000000000 K
1S
b0001 W
#230001
0S
#235001
0$
0-
b0001 >
0D
b00000000000000000000000000000000 L
1S
b10000000000000000000000000011001010000000000000000000000000000000000000001 T
#240001
0S
#245001
1E
b00001 I
b00000000000000000000000000000010 J
b00000000000000000000000000000000 M
1S
b00000000000000000000000000011001010000000000000000000000000000000000000001 T
#250001
0S
#255001
b00010 I
b00000000000000000000000000000010 K
b00000000000000000000000000000000 N
1S
#260001
0S
#265001
b000000000000000000000000000000000000000000000000000000000000000000 1
b00100 I
b00000000000000000000000000000010 L
1S
#270001
0S
#275001
b01000 I
b00000000000000000000000000000010 M
1S
#280001
0S
#285001
b10000 I
b00000000000000000000000000000010 N
1S
#290001
0S
#295001
b100000000000000000000000000000000000000000000000000000000000000100 1
b00000 I
1S
b0110 W
#300001
0S
#305001
1.
b10000000000000000000000000000001000 /
b000000000000000000000000000000000000000000000000000000000000000100 1
b0110 >
0E
1S
b00000000000000000000000000000000000000000000000000000000000000000000000000 T
b0000 W
#310001
0S
#315001
b00000000000000000000000000000010 +
1-
0.
b00000000000000000000000000000000000 /
b0000 >
b00000000000000000000000000000000 J
1S
#320001
0S
#325001
1$
b00110000000000000000000000000110010000000000000000000000000001100101000000000000000000000000110010000000000000000000000000000000000000000001 %
b00110000000000000000000000000110010000000000000000000000000001100101000000000000000000000000110010000000000000000000000000000000000000000001 ?
1D
b00000000000000000000000000000000 K
1S
b0010 W
#330001
0S
#335001
0$
0-
b0010 >
0D
b00000000000000000000000000000000 L
1S
b10000000000000000000000000011001000000000000000000000000000000000000000001 T
#340001
0S
#345001
1E
b00001 I
b00000000000000000000000000110111 J
b00000000000000000000000000000000 M
1S
b00000000000000000000000000011001000000000000000000000000000000000000000001 T
#350001
0S
#355001
b00010 I
b00000000000000000000000000110111 K
b00000000000000000000000000000000 N
1S
#360001
0S
#365001
b000000000000000000000000000000000000000000000000000000000000000000 1
b00100 I
b00000000000000000000000000110111 L
1S
#370001
0S
#375001
b01000 I
b00000000000000000000000000110111 M
1S
#380001
0S
#385001
b10000 I
b00000000000000000000000000110111 N
1S
#390001
0S
#395001
b100000000000000000000000000000000000000000000000000000000001101110 1
b00000 I
1S
b0011 W
#400001
0S
#405001
b000000000000000000000000000000000000000000000000000000000001101110 1
b0011 >
0E
b00000000000000000000000000110111 F
1S
b10000000000000000000000000011001010000000000000000000000000000000000000001 T
#410001
0S
#415001
1E
b00001 I
b00000000000000000000000000000010 J
1S
b00000000000000000000000000011001010000000000000000000000000000000000000001 T
#420001
0S
#425001
b00010 I
b00000000000000000000000000000010 K
1S
#430001
0S
#435001
b00100 I
b00000000000000000000000000000010 L
1S
#440001
0S
#445001
b01000 I
b00000000000000000000000000000010 M
1S
#450001
0S
#455001
b10000 I
b00000000000000000000000000000010 N
1S
#460001
0S
#465001
b100000000000000000000000000000000000000000000000000000000000000100 1
b00000 I
1S
b0100 W
#470001
0S
#475001
b000000000000000000000000000000000000000000000000000000000000000100 1
14
b00110000000000000000000000000110010000000000000000000000000001100101000000000000000000000000110010000000000000000000000000000000000000000001 5
b00000000000000000000000000110111 :
b00000000000000000000000000000010 ;
b0100 >
0E
b00000000000000000000000000000010 G
b00000000000000000000000001101110 P
b0000000000000000000000000000000000000000000000000000000001101110 Q
1S
b00000000000000000000000000000000000000000000000000000000000000000000000000 T
#480001
0S
#485001
1<
b00000000000000000000000001101110 =
b00000000000000000000000000000000 J
1S
b0101 W
#490001
0S
#495001
04
b00000000000000000000000000000000000000000000000000000000000000000000000000000000000000000000000000000000000000000000000000000000000000000000 5
b00000000000000000000000000000000 :
b00000000000000000000000000000000 ;
b0101 >
b00000000000000000000000001101110 H
b00000000000000000000000000000000 K
b00000000000000000000000000000000 P
b0000000000000000000000000000000000000000000000000000000000000000 Q
1S
b11000000000000000000000000110010000000000000000000000000000110111000000001 T
b0110 W
#500001
0S
#505001
1.
b10000000000000000000000000000000000 /
b100000000000000000000000000000000000000000000000000000000000000000 1
0<
b00000000000000000000000000000000 =
b0110 >
b00000000000000000000000000000000 L
1S
b00000000000000000000000000000000000000000000000000000000000000000000000000 T
b0000 W
#510001
0S
#515001
b00000000000000000000000000000000 +
1-
0.
b00000000000000000000000000000000000 /
b000000000000000000000000000000000000000000000000000000000000000100 1
b0000 >
b00000000000000000000000000000000 M
1S
#520001
0S
#525001
1$
b00010000000000000000000000001100100000000000000000000000000000000000000000000000000000000000000000000000000000000000000000000000000000000001 %
b00010000000000000000000000001100100000000000000000000000000000000000000000000000000000000000000000000000000000000000000000000000000000000001 ?
1D
b00000000000000000000000000000000 N
1S
b0001 W
#530001
0S
#535001
0$
0-
b000000000000000000000000000000000000000000000000000000000000000000 1
b0001 >
0D
1S
b10000000000000000000000000110010000000000000000000000000000000000000000001 T
#540001
0S
#545001
1E
b00001 I
b00000000000000000000000001101110 J
1S
b00000000000000000000000000110010000000000000000000000000000000000000000001 T
#550001
0S
#555001
b00010 I
b00000000000000000000000001101110 K
1S
#560001
0S
#565001
b00100 I
b00000000000000000000000001101110 L
1S
#570001
0S
#575001
b01000 I
b00000000000000000000000001101110 M
1S
#580001
0S
#585001
b10000 I
b00000000000000000000000001101110 N
1S
#590001
0S
#595001
b100000000000000000000000000000000000000000000000000000000011011100 1
b00000 I
1S
b0110 W
#600001
0S
#605001
1.
b10000000000000000000000000110111000 /
b000000000000000000000000000000000000000000000000000000000011011100 1
b0110 >
0E
1S
b00000000000000000000000000000000000000000000000000000000000000000000000000 T
b0000 W
#610001
0S
#615001
b00000000000000000000000001101110 +
1-
0.
b00000000000000000000000000000000000 /
b0000 >
b00000000000000000000000000000000 J
1S
#620001
0S
#625001
b00000000000000000000000000000000 K
1S
#630001
0S
#635001
b00000000000000000000000000000000 L
1S
#640001
0S
#645001
b00000000000000000000000000000000 M
1S
#650001
0S
#655001
b00000000000000000000000000000000 N
1S
#660001
0S
#665001
b000000000000000000000000000000000000000000000000000000000000000000 1
1S
